<svg id="b923e5b4-d12b-4d01-99bd-09ab73449071" data-name="&lt;Layer&gt;" xmlns="http://www.w3.org/2000/svg" viewBox="0 0 32 32">
  <title>prev</title>
  <polygon points="14.4 16 21.8 23.4 19.7 25.5 12.3 18.1 10.2 16 12.3 13.9 19.7 6.5 21.8 8.6 14.4 16"/>
</svg>
