<svg id="499f72ae-59ed-4868-a1e0-33c51d9359cb" data-name="&lt;Layer&gt;" xmlns="http://www.w3.org/2000/svg" viewBox="0 0 32 32">
  <title>search</title>
  <path d="M16,1A15,15,0,1,0,31,16,15,15,0,0,0,16,1Zm0,27.5A12.5,12.5,0,1,1,28.5,16,12.5,12.5,0,0,1,16,28.5Z"/>
  <path d="M19.2,9.3a7,7,0,0,0-9.9,9.9,6.8,6.8,0,0,0,8.7.9l3.6,3.6,2.1-2.1L20.1,18A6.8,6.8,0,0,0,19.2,9.3Zm-7.8,7.8a4,4,0,1,1,5.7,0A4.2,4.2,0,0,1,11.4,17.1Z"/>
</svg>
