<?xml version="1.0" encoding="iso-8859-1"?>
<!-- Generator: Adobe Illustrator 18.0.0, SVG Export Plug-In . SVG Version: 6.00 Build 0)  -->
<!DOCTYPE svg PUBLIC "-//W3C//DTD SVG 1.1//EN" "http://www.w3.org/Graphics/SVG/1.1/DTD/svg11.dtd">
<svg version="1.1" id="Capa_1" xmlns="http://www.w3.org/2000/svg" xmlns:xlink="http://www.w3.org/1999/xlink" x="0px" y="0px"
	 viewBox="0 0 295.134 295.134" style="enable-background:new 0 0 295.134 295.134;" xml:space="preserve">
<path d="M292.567,159.638v-15.033h-21.738c-4.76-19.05-34.478-110.088-173.207-141.747c-30.887-7.049-46.457-1.12-49.211,18.455
	c-8.217-0.125-20.597,1.203-35.771,7.541l3.854,9.227c13.551-5.66,24.51-6.828,31.547-6.755c0.544,11.427,3.953,26.022,9.958,43.87
	c15.476,31.73-13.253,56.79-32.838,69.408H2.567v15.033h194.491l0.097,0.137l-5.262,7.416l5.262,7.413l-5.262,7.419l5.262,7.418
	l-5.261,7.414l5.261,7.418l-5.262,7.416l5.439,7.669l-5.439,7.666l5.262,7.417l-5.262,7.416l5.262,7.413l-5.262,7.419l5.262,7.418
	l-5.261,7.414l5.261,7.418l-5.262,7.416l6.227,8.779h10.164l6.227-8.779l-5.262-7.416l5.262-7.418l-5.262-7.414l5.262-7.418
	l-5.262-7.419l5.262-7.413l-5.262-7.416l5.262-7.417l-5.439-7.666l5.439-7.669l-5.262-7.416l5.262-7.418l-5.262-7.414l5.262-7.418
	l-5.262-7.419l5.262-7.413l-5.262-7.416l0.097-0.137H292.567z M147.399,55.848c-2.114,7.631-10.016,12.1-17.646,9.985L83.599,53.036
	c-7.631-2.115-12.102-10.016-9.984-17.647c2.114-7.63,10.016-12.1,17.647-9.984l46.153,12.798
	C145.047,40.316,149.516,48.218,147.399,55.848z"/>
<g>
</g>
<g>
</g>
<g>
</g>
<g>
</g>
<g>
</g>
<g>
</g>
<g>
</g>
<g>
</g>
<g>
</g>
<g>
</g>
<g>
</g>
<g>
</g>
<g>
</g>
<g>
</g>
<g>
</g>
</svg>
