<?xml version="1.0" encoding="iso-8859-1"?>
<!-- Generator: Adobe Illustrator 18.0.0, SVG Export Plug-In . SVG Version: 6.00 Build 0)  -->
<!DOCTYPE svg PUBLIC "-//W3C//DTD SVG 1.1//EN" "http://www.w3.org/Graphics/SVG/1.1/DTD/svg11.dtd">
<svg version="1.1" id="Capa_1" xmlns="http://www.w3.org/2000/svg" xmlns:xlink="http://www.w3.org/1999/xlink" x="0px" y="0px"
	 viewBox="0 0 313.889 313.889" style="enable-background:new 0 0 313.889 313.889;" xml:space="preserve">
<path d="M256.588,115.502h-60.555c-4.335,0-7.85,3.514-7.85,7.85c0,4.335,3.515,7.85,7.85,7.85h22.428v70.646H112.635
	l-18.329-18.329V63.186l18.329-18.331h72.671l18.33,18.331v15.03h-7.603c-4.335,0-7.85,3.514-7.85,7.85
	c0,4.335,3.515,7.85,7.85,7.85h60.555c4.336,0,7.85-3.515,7.85-7.85c0-4.336-3.514-7.85-7.85-7.85h-8.098V44.606L203.886,0H94.055
	L49.451,44.606v157.49l44.604,44.607h124.406v34.324h-45.448c-4.335,0-7.85,3.515-7.85,7.85c0,4.335,3.515,7.85,7.85,7.85h45.448
	v9.313c0,4.335,3.515,7.85,7.85,7.85c4.336,0,7.85-3.515,7.85-7.85v-9.313h7.85c4.336,0,7.85-3.515,7.85-7.85
	c0-4.335-3.514-7.85-7.85-7.85h-7.85v-34.324h27.718v-44.855H234.16v-70.646h22.428c4.336,0,7.85-3.515,7.85-7.85
	C264.438,119.016,260.924,115.502,256.588,115.502z"/>
<g>
</g>
<g>
</g>
<g>
</g>
<g>
</g>
<g>
</g>
<g>
</g>
<g>
</g>
<g>
</g>
<g>
</g>
<g>
</g>
<g>
</g>
<g>
</g>
<g>
</g>
<g>
</g>
<g>
</g>
</svg>
