<?xml version="1.0" encoding="iso-8859-1"?>
<!-- Generator: Adobe Illustrator 16.0.0, SVG Export Plug-In . SVG Version: 6.00 Build 0)  -->
<!DOCTYPE svg PUBLIC "-//W3C//DTD SVG 1.1//EN" "http://www.w3.org/Graphics/SVG/1.1/DTD/svg11.dtd">
<svg version="1.1" id="_x31_6-chisel.svg" xmlns="http://www.w3.org/2000/svg" xmlns:xlink="http://www.w3.org/1999/xlink" x="0px"
	 y="0px" width="612px" height="792px" viewBox="0 0 612 792" style="enable-background:new 0 0 612 792;" xml:space="preserve">
<path d="M611.996,193.802l-20.226,20.226L487.973,110.23l20.227-20.226L611.996,193.802z M274.231,323.974
	c7.409,18.625,7.227,39.548-0.493,58.072l-18.076-18.076C206.529,409.982,75.332,482.1,41.974,515.46
	c-53.968,53.969-52.892,116.786-13.891,157.13l-0.034,0.033c0.223,0.222,0.454,0.426,0.677,0.647
	c0.223,0.224,0.426,0.458,0.649,0.679l0.034-0.033c40.345,38.998,103.163,40.075,157.129-13.894
	c33.361-33.358,105.476-164.554,151.49-213.687l-18.076-18.077c18.524-7.721,39.447-7.9,58.074-0.491l192.308-192.303
	L466.535,131.668L274.231,323.974z"/>
</svg>
