<svg id="1e4a0f2d-66d3-410c-949b-c4e5763be2ba" data-name="&lt;Layer&gt;" xmlns="http://www.w3.org/2000/svg" viewBox="0 0 32 32">
  <title>twitter_share</title>
  <path d="M10.4,28.2c11.3,0,17.5-9.4,17.5-17.5,0-.3,0-.5,0-.8A12.5,12.5,0,0,0,31,6.7a12.3,12.3,0,0,1-3.5,1,6.2,6.2,0,0,0,2.7-3.4,12.3,12.3,0,0,1-3.9,1.5,6.2,6.2,0,0,0-10.5,5.6A17.5,17.5,0,0,1,3.1,4.9,6.2,6.2,0,0,0,5,13.2a6.1,6.1,0,0,1-2.8-.8h0a6.2,6.2,0,0,0,4.9,6l-1.6.2H4.4a6.2,6.2,0,0,0,5.7,4.3,12.4,12.4,0,0,1-7.6,2.6H1a17.4,17.4,0,0,0,9.4,2.8"/>
</svg>
