<svg id="154ba636-a048-4613-a8d5-bb67eb6aadf9" data-name="&lt;Layer&gt;" xmlns="http://www.w3.org/2000/svg" viewBox="0 0 32 32">
  <title>twitter</title>
  <path d="M16,1A15,15,0,1,0,31,16,15,15,0,0,0,16,1Zm0,27.5A12.5,12.5,0,1,1,28.5,16,12.5,12.5,0,0,1,16,28.5Z"/>
  <path d="M12.7,23.3A10.4,10.4,0,0,0,23.2,12.8c0-.2,0-.3,0-.5A7.5,7.5,0,0,0,25,10.4a7.4,7.4,0,0,1-2.1.6,3.7,3.7,0,0,0,1.6-2,7.4,7.4,0,0,1-2.3.9,3.7,3.7,0,0,0-6.3,3.4A10.5,10.5,0,0,1,8.3,9.4a3.7,3.7,0,0,0,1.1,4.9,3.7,3.7,0,0,1-1.7-.5h0a3.7,3.7,0,0,0,3,3.6H9a3.7,3.7,0,0,0,3.4,2.6,7.4,7.4,0,0,1-4.6,1.6H7a10.5,10.5,0,0,0,5.7,1.7"/>
</svg>
