<svg xmlns="http://www.w3.org/2000/svg" viewBox="0 0 20 20">
  <title>icon-spiral</title>
  <!-- Generator: Adobe Illustrator 21.0.2, SVG Export Plug-In  -->
  <path d="M19.4,11.2l0.6,0.1c0,0-0.3-1.8-1.1-3.5c-0.8-1.8-0.6-3-0.6-3c-1.1-0.5-2.4-1.7-3-2.4l0.5-0.8c0,0-0.5-0.1-2.8-0.5
	S9.1,0,9.1,0S6.9,1.5,5.2,1.9c0,0-0.1,0.2-0.1,0.6C3,3.7,1.9,5,1.9,5c1.1,4.1,0.6,6.2,0.6,6.2s2.9,1.4,4.2,3.3c0,0,2.1-0.7,4-0.3
	c0,0,2.4-1.5,3.3-3.7c-0.6-1.1-0.6-3.8-0.6-3.8l0.2-0.2c0,0-0.3-0.5-2.2-0.9c-1.5-0.3-2-0.8-2-0.8s0,0,0,0l0,0c0,0,0,0,0,0
	c0,0-1,0-2.5,1.3c0,0,0,0.7,0,1.3c0,0.7-0.1,1.5-0.1,1.5c0.7,0.9,1.9,1.4,1.9,1.4s1.1-0.3,1.9-0.3c0,0,0.3-0.7,0.3-1.8
	c0,0-0.6-0.6-1.8-0.5c0,0-0.5,0.1-1.2,0.9c-0.1-0.4-0.1-0.8,0-1.2c0.4-0.5,1-0.9,1.5-1c1.7,0.3,2.6,1,2.6,1c0.3,1.3-0.2,3.7-0.2,3.7
	s-1.5,0.9-4,1c0,0-3-1.3-3.5-3.1l0,0C4.9,7.7,4.9,6.3,4.9,5c0.2-0.2,1.5-1.5,4.6-2.5c2.4,1.2,4.6,1.6,4.6,1.6
	c3.4,3.6,1.9,6.7,1.9,6.7s0.1,0.3,0.4,0.8h-0.3c0,0-1,3.2-3.9,4l0.4,0.4c-0.8,0.1-2.1,0.3-3.5,0.7l0,0c-3.3,0.9-5-1-5-1
	c-4-1.4-3.7-5-3.7-5C-0.2,12.4,0.1,14,0.1,14s1,1.2,2.5,2.1c2.6,1.7,2.2,2.6,2.2,2.6l0,0c-0.2,0.1-0.4,0.2-0.6,0.5
	c0,0,3-0.5,5.6,0.8c0,0,3-1.8,4.9-1.9c0,0,1.7-2.3,3.5-3.4c0,0,0,0,0,0C18.2,14.7,18.7,12.4,19.4,11.2z"/>
</svg>
